<svg width="9" height="14" viewBox="0 0 9 14" fill="none" xmlns="http://www.w3.org/2000/svg">
<path d="M8.1349 6.18763L2.65437 0.707107C2.02441 0.0771421 0.947266 0.52331 0.947266 1.41421V12.3753C0.947266 13.2662 2.02441 13.7123 2.65437 13.0824L8.1349 7.60184C8.52542 7.21132 8.52542 6.57815 8.1349 6.18763Z" fill="white"/>
</svg>
